\relax 
\providecommand\hyper@newdestlabel[2]{}
\providecommand\zref@newlabel[2]{}
\providecommand\HyperFirstAtBeginDocument{\AtBeginDocument}
\HyperFirstAtBeginDocument{\ifx\hyper@anchor\@undefined
\global\let\oldcontentsline\contentsline
\gdef\contentsline#1#2#3#4{\oldcontentsline{#1}{#2}{#3}}
\global\let\oldnewlabel\newlabel
\gdef\newlabel#1#2{\newlabelxx{#1}#2}
\gdef\newlabelxx#1#2#3#4#5#6{\oldnewlabel{#1}{{#2}{#3}}}
\AtEndDocument{\ifx\hyper@anchor\@undefined
\let\contentsline\oldcontentsline
\let\newlabel\oldnewlabel
\fi}
\fi}
\global\let\hyper@last\relax 
\gdef\HyperFirstAtBeginDocument#1{#1}
\providecommand\HyField@AuxAddToFields[1]{}
\providecommand\HyField@AuxAddToCoFields[2]{}
\@writefile{toc}{\contentsline {section}{\numberline {1}Einführung und Motivation}{3}{section.1}\protected@file@percent }
\@writefile{toc}{\contentsline {subsection}{\numberline {1.1}Mulliken Analysis}{3}{subsection.1.1}\protected@file@percent }
\@writefile{toc}{\contentsline {subsection}{\numberline {1.2}DMA Einführung}{4}{subsection.1.2}\protected@file@percent }
\@writefile{toc}{\contentsline {section}{\numberline {2}Die DMA Methode}{4}{section.2}\protected@file@percent }
\@writefile{toc}{\contentsline {subsection}{\numberline {2.1}Zusammenfassung}{4}{subsection.2.1}\protected@file@percent }
\@writefile{toc}{\contentsline {subsubsection}{\numberline {2.1.1}Höhe der Multipole}{5}{subsubsection.2.1.1}\protected@file@percent }
\@writefile{toc}{\contentsline {paragraph}{Fahrplan}{5}{section*.2}\protected@file@percent }
\@writefile{toc}{\contentsline {subsection}{\numberline {2.2}Startpunkt}{5}{subsection.2.2}\protected@file@percent }
\@writefile{toc}{\contentsline {section}{\numberline {3}Obara-Saika-Rekursionsschema für Überlappintegrale}{6}{section.3}\protected@file@percent }
\@writefile{toc}{\contentsline {subsection}{\numberline {3.1}Primitive Cartesian Gaussians}{6}{subsection.3.1}\protected@file@percent }
\@writefile{toc}{\contentsline {subsubsection}{\numberline {3.1.1}Definition, Normierung, Produkt}{6}{subsubsection.3.1.1}\protected@file@percent }
\zref@newlabel{mdf@pagelabel-1}{\default{3.1.1}\page{6}\abspage{6}\mdf@pagevalue{6}}
\@writefile{toc}{\contentsline {subsubsection}{\numberline {3.1.2}Gaussian Product Rule}{6}{subsubsection.3.1.2}\protected@file@percent }
\@writefile{toc}{\contentsline {subsection}{\numberline {3.2}Überlappintegral}{7}{subsection.3.2}\protected@file@percent }
\@writefile{toc}{\contentsline {subsubsection}{\numberline {3.2.1}Definition}{7}{subsubsection.3.2.1}\protected@file@percent }
\newlabel{subsubsec:overlapdef}{{3.2.1}{7}{Definition}{subsubsection.3.2.1}{}}
\@writefile{toc}{\contentsline {subsubsection}{\numberline {3.2.2}Obara-Saika-Rekursionsschema}{7}{subsubsection.3.2.2}\protected@file@percent }
\newlabel{eqref:obsai1}{{25}{7}{Obara-Saika-Rekursionsschema}{equation.3.25}{}}
\@writefile{toc}{\contentsline {paragraph}{Implementierung}{8}{section*.3}\protected@file@percent }
\newlabel{eq:horrecimpl}{{28}{8}{Implementierung}{equation.3.28}{}}
\@writefile{toc}{\contentsline {subsubsection}{\numberline {3.2.3}Transformation zu \textit  {pure spherical gaussians}}{8}{subsubsection.3.2.3}\protected@file@percent }
\@writefile{toc}{\contentsline {paragraph}{Herleitung}{8}{section*.4}\protected@file@percent }
\@writefile{toc}{\contentsline {section}{\numberline {4}Obara-Saika-Rekursionschema für Multipolmomente}{10}{section.4}\protected@file@percent }
\@writefile{toc}{\contentsline {subsection}{\numberline {4.1}Multipolintegrale}{10}{subsection.4.1}\protected@file@percent }
\zref@newlabel{mdf@pagelabel-2}{\default{4.1}\page{10}\abspage{10}\mdf@pagevalue{10}}
\@writefile{toc}{\contentsline {subsection}{\numberline {4.2}Obara-Saika-Rekursionsschema}{11}{subsection.4.2}\protected@file@percent }
\@writefile{toc}{\contentsline {paragraph}{Implementierung}{11}{section*.5}\protected@file@percent }
\@writefile{toc}{\contentsline {subsection}{\numberline {4.3}Gewichtung mit Dichtematrix}{12}{subsection.4.3}\protected@file@percent }
\@writefile{toc}{\contentsline {subsection}{\numberline {4.4}Umrechnung kartesische zu sphärischen Multipolen}{12}{subsection.4.4}\protected@file@percent }
\newlabel{eq:multipoledisaster}{{58}{13}{Umrechnung kartesische zu sphärischen Multipolen}{equation.4.58}{}}
